<?xml version="1.0" encoding="UTF-8" standalone="no"?>
<!-- Created with Inkscape (http://www.inkscape.org/) -->

<svg
   xmlns:dc="http://purl.org/dc/elements/1.1/"
   xmlns:cc="http://creativecommons.org/ns#"
   xmlns:rdf="http://www.w3.org/1999/02/22-rdf-syntax-ns#"
   xmlns:svg="http://www.w3.org/2000/svg"
   xmlns="http://www.w3.org/2000/svg"
   xmlns:sodipodi="http://sodipodi.sourceforge.net/DTD/sodipodi-0.dtd"
   xmlns:inkscape="http://www.inkscape.org/namespaces/inkscape"
   width="263.38959mm"
   height="125.84874mm"
   viewBox="0 0 263.38959 125.84876"
   version="1.1"
   id="svg8"
   inkscape:version="0.92.1 r15371"
   sodipodi:docname="logo-sinistra.svg">
  <defs
     id="defs2">
    <clipPath
       id="clipPath4501"
       clipPathUnits="userSpaceOnUse">
      <path
         inkscape:connector-curvature="0"
         id="path4499"
         d="M 0,841.89 H 595.28 V 0 H 0 Z" />
    </clipPath>
    <clipPath
       id="clipPath4513"
       clipPathUnits="userSpaceOnUse">
      <path
         inkscape:connector-curvature="0"
         id="path4511"
         d="M 0,841.89 H 595.28 V 0 H 0 Z" />
    </clipPath>
    <clipPath
       id="clipPath4581"
       clipPathUnits="userSpaceOnUse">
      <path
         inkscape:connector-curvature="0"
         id="path4579"
         d="M 0,841.89 H 595.28 V 0 H 0 Z" />
    </clipPath>
    <clipPath
       id="clipPath4613"
       clipPathUnits="userSpaceOnUse">
      <path
         inkscape:connector-curvature="0"
         id="path4611"
         d="M 0,841.89 H 595.28 V 0 H 0 Z" />
    </clipPath>
    <clipPath
       id="clipPath4629"
       clipPathUnits="userSpaceOnUse">
      <path
         inkscape:connector-curvature="0"
         id="path4627"
         d="M 0,841.89 H 595.28 V 0 H 0 Z" />
    </clipPath>
    <clipPath
       id="clipPath4645"
       clipPathUnits="userSpaceOnUse">
      <path
         inkscape:connector-curvature="0"
         id="path4643"
         d="M 0,841.89 H 595.28 V 0 H 0 Z" />
    </clipPath>
  </defs>
  <sodipodi:namedview
     id="base"
     pagecolor="#ffffff"
     bordercolor="#666666"
     borderopacity="1.0"
     inkscape:pageopacity="0.0"
     inkscape:pageshadow="2"
     inkscape:zoom="1"
     inkscape:cx="146.49092"
     inkscape:cy="321.99796"
     inkscape:document-units="mm"
     inkscape:current-layer="g4493"
     showgrid="false"
     inkscape:window-width="1920"
     inkscape:window-height="1017"
     inkscape:window-x="-8"
     inkscape:window-y="32"
     inkscape:window-maximized="1" />
  <metadata
     id="metadata5">
    <rdf:RDF>
      <cc:Work
         rdf:about="">
        <dc:format>image/svg+xml</dc:format>
        <dc:type
           rdf:resource="http://purl.org/dc/dcmitype/StillImage" />
        <dc:title />
      </cc:Work>
    </rdf:RDF>
  </metadata>
  <g
     inkscape:label="Livello 1"
     inkscape:groupmode="layer"
     id="layer1"
     transform="translate(3.1550711,-44.687249)">
    <g
       transform="matrix(0.35277777,0,0,-0.35277777,-5.2149876,293.85715)"
       inkscape:label="PATCH logo+scritte BIANCO"
       id="g4493">
      <g
         id="g4575"
         transform="matrix(0.8882017,0,0,0.82201643,24.819122,181.0771)"
         style="stroke:#a9a9a9;stroke-width:1.49284685;stroke-miterlimit:4;stroke-dasharray:none;stroke-opacity:1">
        <g
           clip-path="url(#clipPath4581)"
           id="g4577"
           style="stroke:#a9a9a9;stroke-width:1.49284685;stroke-miterlimit:4;stroke-dasharray:none;stroke-opacity:1">
          <g
             transform="translate(276.2012,587.8779)"
             id="g4583"
             style="stroke:#a9a9a9;stroke-width:1.49284685;stroke-miterlimit:4;stroke-dasharray:none;stroke-opacity:1">
            <path
               inkscape:connector-curvature="0"
               id="path4585"
               style="fill:#c52927;fill-opacity:1;fill-rule:evenodd;stroke:#a9a9a9;stroke-width:1.49284685;stroke-miterlimit:4;stroke-dasharray:none;stroke-opacity:1"
               d="m 0,0 c 2.014,2.988 14.206,8.446 16.559,2.16 0.548,-1.465 0.498,-4.262 0.48,-6 -0.06,-6.308 -0.851,-13.113 -0.96,-20.16 -0.315,-20.658 -0.925,-44.256 -1.68,-63.6 -13.259,1.083 -21.424,7.386 -28.799,14.88 -4.159,4.225 -8.417,8.686 -10.801,13.44 -2.765,5.516 -4.941,12.412 -6.48,19.92 -0.829,4.046 -4.758,20.689 1.441,21.12 3.357,0.234 4.959,-3.69 8.16,-3.84 -8.13,8.431 -9.255,25.946 -13.201,39.36 -1.311,-22.049 -9.782,-36.938 -18.24,-51.84 0.959,-0.251 1.675,1.363 2.4,2.16 2.683,2.947 5.363,6.73 9.6,7.68 1.777,-11.867 2.142,-22.062 5.281,-31.2 6.037,-17.577 17.91,-29.902 31.92,-39.6 4.947,-3.425 10.605,-5.92 14.639,-9.36 2.419,-2.062 3.763,-3.817 4.08,-7.2 0.572,-6.078 0,-12.91 0,-19.44 -10e-4,-74.388 -1.44,-147.148 -1.44,-221.041 0,-3.863 -0.813,-8.373 -0.24,-10.798 0.41,-1.737 3.541,-3.329 5.281,-4.561 5.117,-3.627 9.715,-7.225 13.199,-11.76 0.713,-0.927 1.209,-2.881 1.92,-2.4 -1.529,31.564 -1.68,64.303 -1.68,96.961 0,58.707 -1.933,118.058 -0.48,176.159 4.766,6.48 12.535,9.524 18.961,14.16 12.709,9.171 23.549,19.808 29.76,35.28 4,9.963 5.027,21.674 6.959,34.8 4.332,-0.719 6.738,-4.806 9.121,-7.44 0.756,-0.837 2.201,-2.569 2.638,-2.16 -8.375,14.745 -17.007,29.231 -18,51.36 -3.361,-10.742 -4.695,-25.318 -9.359,-34.32 -0.35,-0.676 -1.226,-1.868 -1.92,-2.64 -0.598,-0.665 -2.383,-1.614 -1.439,-1.92 3.412,0.458 4.08,4.115 7.92,3.6 3.525,-0.472 3.281,-5.765 2.879,-9.84 -1.25,-12.707 -4.78,-23.527 -8.399,-31.92 -9.857,-12.543 -19.09,-25.711 -39.601,-27.6 -0.293,18.702 -1.68,43.695 -1.68,63.84 0,7.326 -0.973,14.297 -0.959,20.64 0.014,6.453 2.68,9.442 9.119,7.92 3.178,-0.751 5.912,-3.447 7.92,-4.08 C 33.756,13.836 27.523,31.845 22.319,50.88 18.006,30.953 10.021,13.419 0,0" />
          </g>
          <g
             transform="translate(298.5205,638.7578)"
             id="g4587"
             style="stroke:#a9a9a9;stroke-width:1.49284685;stroke-miterlimit:4;stroke-dasharray:none;stroke-opacity:1">
            <path
               inkscape:connector-curvature="0"
               id="path4589"
               style="fill:#c52927;fill-opacity:1;fill-rule:evenodd;stroke:#a9a9a9;stroke-width:1.49284685;stroke-miterlimit:4;stroke-dasharray:none;stroke-opacity:1"
               d="m 0,0 c 5.204,-19.035 11.437,-37.043 22.56,-50.16 -2.008,0.633 -4.743,3.329 -7.92,4.08 -6.44,1.522 -9.106,-1.467 -9.119,-7.92 -0.014,-6.343 2.345,-65.778 2.638,-84.48 20.512,1.889 29.744,15.057 39.602,27.6 3.619,8.393 7.148,19.213 8.398,31.92 0.403,4.075 0.647,9.368 -2.879,9.84 -3.84,0.515 -4.508,-3.142 -7.92,-3.6 -0.943,0.306 0.842,1.255 1.44,1.92 0.693,0.772 1.57,1.964 1.92,2.64 4.664,9.002 5.998,23.578 9.359,34.32 0.992,-22.129 9.625,-36.615 18,-51.36 -0.437,-0.409 -1.883,1.323 -2.639,2.16 -2.382,2.634 -4.789,6.721 -9.121,7.44 -1.931,-13.126 -2.959,-24.837 -6.959,-34.8 -6.211,-15.472 -17.05,-26.109 -29.759,-35.28 -6.426,-4.635 -14.196,-7.68 -18.961,-14.16 -0.492,-61.933 0.631,-241.556 2.16,-273.12 -0.711,-0.48 -1.207,1.473 -1.92,2.4 -3.484,4.536 -8.082,8.133 -13.199,11.76 -1.741,1.233 -4.871,2.824 -5.282,4.561 -0.572,2.426 1.68,157.451 1.681,231.84 0,6.529 0.571,13.361 0,19.439 -0.317,3.383 -1.661,5.138 -4.08,7.2 -4.034,3.44 -9.692,5.935 -14.64,9.36 -14.009,9.698 -25.882,22.023 -31.92,39.6 -3.138,9.138 -3.503,19.333 -5.28,31.2 -4.237,-0.95 -6.917,-4.733 -9.6,-7.68 -0.725,-0.797 -1.441,-2.41 -2.4,-2.16 8.457,14.902 16.929,29.792 18.239,51.84 3.947,-13.414 5.072,-30.929 13.202,-39.36 -3.202,0.15 -4.803,4.074 -8.161,3.84 -6.199,-0.431 -2.269,-17.074 -1.44,-21.12 1.539,-7.508 3.715,-14.404 6.479,-19.92 2.384,-4.754 6.643,-9.215 10.801,-13.44 7.375,-7.494 15.54,-13.796 28.8,-14.88 0.755,19.344 2.579,77.452 2.64,83.76 0.017,1.739 0.068,4.535 -0.481,6 -2.352,6.286 -14.545,0.828 -16.558,-2.16 C -12.299,-37.461 -4.313,-19.927 0,0" />
          </g>
        </g>
      </g>
      <g
         transform="translate(297.6399,574.7553)"
         id="g4591">
        <path
           inkscape:connector-curvature="0"
           id="path4593"
           style="fill:#ffffff;fill-opacity:1;fill-rule:nonzero;stroke:none"
           d="M 0,0 H 0.001 Z" />
      </g>
      <g
         transform="translate(297.6406,574.7554)"
         id="g4595">
        <path
           inkscape:connector-curvature="0"
           id="path4597"
           style="fill:none;stroke:#000000;stroke-width:0.25;stroke-linecap:butt;stroke-linejoin:miter;stroke-miterlimit:10;stroke-dasharray:none;stroke-opacity:1"
           d="M 0,0 H -0.001 Z" />
      </g>
      <g
         transform="translate(297.6399,574.7553)"
         id="g4599">
        <path
           inkscape:connector-curvature="0"
           id="path4601"
           style="fill:#ffffff;fill-opacity:1;fill-rule:nonzero;stroke:none"
           d="M 0,0 H 0.001 Z" />
      </g>
      <g
         transform="translate(297.6406,574.7554)"
         id="g4603">
        <path
           inkscape:connector-curvature="0"
           id="path4605"
           style="fill:none;stroke:#000000;stroke-width:0.25;stroke-linecap:butt;stroke-linejoin:miter;stroke-miterlimit:10;stroke-dasharray:none;stroke-opacity:1"
           d="M 0,0 H -0.001 Z" />
      </g>
      <g
         id="g4607">
        <g
           clip-path="url(#clipPath4613)"
           id="g4609">
          <g
             transform="translate(297.6401,574.7554)"
             id="g4615">
            <path
               inkscape:connector-curvature="0"
               id="path4617"
               style="fill:#ffffff;fill-opacity:1;fill-rule:nonzero;stroke:none"
               d="M 0,0 V 0" />
          </g>
        </g>
      </g>
      <g
         transform="translate(297.6401,574.7554)"
         id="g4619">
        <path
           inkscape:connector-curvature="0"
           id="path4621"
           style="fill:none;stroke:#000000;stroke-width:0.25;stroke-linecap:butt;stroke-linejoin:miter;stroke-miterlimit:10;stroke-dasharray:none;stroke-opacity:1"
           d="M 0,0 V 0" />
      </g>
      <g
         id="g4623">
        <g
           clip-path="url(#clipPath4629)"
           id="g4625">
          <g
             transform="translate(297.6401,574.7554)"
             id="g4631">
            <path
               inkscape:connector-curvature="0"
               id="path4633"
               style="fill:#ffffff;fill-opacity:1;fill-rule:nonzero;stroke:none"
               d="M 0,0 V 0" />
          </g>
        </g>
      </g>
      <g
         transform="translate(297.6401,574.7554)"
         id="g4635">
        <path
           inkscape:connector-curvature="0"
           id="path4637"
           style="fill:none;stroke:#000000;stroke-width:0.25;stroke-linecap:butt;stroke-linejoin:miter;stroke-miterlimit:10;stroke-dasharray:none;stroke-opacity:1"
           d="M 0,0 V 0" />
      </g>
      <flowRoot
         xml:space="preserve"
         id="flowRoot4954"
         style="font-style:normal;font-variant:normal;font-weight:normal;font-stretch:normal;font-size:40px;line-height:1.25;font-family:RickGriffin;-inkscape-font-specification:RickGriffin;letter-spacing:0px;word-spacing:0px;fill:#000000;fill-opacity:1;stroke:none"><flowRegion
           id="flowRegion4956"
           style="font-style:normal;font-variant:normal;font-weight:normal;font-stretch:normal;font-family:RickGriffin;-inkscape-font-specification:RickGriffin"><rect
             id="rect4958"
             width="815.71429"
             height="290"
             x="-24.285715"
             y="266.80539"
             style="font-style:normal;font-variant:normal;font-weight:normal;font-stretch:normal;font-family:RickGriffin;-inkscape-font-specification:RickGriffin" /></flowRegion><flowPara
           id="flowPara4960" /></flowRoot>      <flowRoot
         xml:space="preserve"
         id="flowRoot4526"
         style="font-style:normal;font-variant:normal;font-weight:normal;font-stretch:normal;font-size:40px;line-height:1.25;font-family:RickGriffin;-inkscape-font-specification:RickGriffin;letter-spacing:0px;word-spacing:0px;fill:#000000;fill-opacity:1;stroke:none"
         transform="matrix(0.75000002,0,0,-0.75000002,14.782642,832.98092)"><flowRegion
           id="flowRegion4528"
           style="font-style:normal;font-variant:normal;font-weight:normal;font-stretch:normal;font-family:RickGriffin;-inkscape-font-specification:RickGriffin"><rect
             id="rect4530"
             width="677.14288"
             height="278.57144"
             x="80"
             y="299.66254"
             style="font-style:normal;font-variant:normal;font-weight:normal;font-stretch:normal;font-family:RickGriffin;-inkscape-font-specification:RickGriffin" /></flowRegion><flowPara
           id="flowPara4532" /></flowRoot>      <g
         aria-label="CLUB INFERNO"
         transform="scale(1,-1)"
         style="font-style:normal;font-weight:normal;font-size:120px;line-height:1.25;font-family:sans-serif;letter-spacing:0px;word-spacing:0px;fill:#c52927;fill-opacity:1;stroke:#a9a9a9;stroke-width:1.27559054;stroke-miterlimit:4;stroke-dasharray:none;stroke-opacity:1"
         id="text4536">
        <path
           d="m 65.036929,-461.8426 q 0,3.72 -4.2,5.88 -3.72,1.56 -7.44,3.12 -2.04,0.12 -4.08,-2.64 -1.92,-2.76 -4.32,-2.76 -10.32,0 -12.72,0.36 -6.48,0.96 -9.84,5.04 -0.48,0.24 -1.2,0.72 -8.64,-1.08 -13.6800003,-16.32 -1.08,-3.48 -1.08,-8.64 0,-15.84 7.6800003,-38.4 0.24,-0.6 0.24,-1.32 0,-3 -4.5600003,-5.52 -1.08,-1.08 -0.12,-1.44 9.1200003,-3 9.1200003,-16.08 0,-2.64 -0.6,-4.92 -0.48,-2.4 -3.24,-4.32 -2.76,-1.92 -6.3600003,-2.4 l -0.24,-0.24 q 0.84,-2.88 3.2400003,-2.64 7.92,2.28 14.04,2.28 3.6,0 6.96,-0.6 4.92,-0.72 8.88,-1.44 9.48,-1.56 12,-2.76 0.96,-0.36 1.56,0.72 0.72,1.08 0.72,2.88 0,2.52 -1.44,4.2 -1.8,1.92 -3.6,3.84 -2.28,2.76 -2.28,3.96 0,0.72 0.6,1.08 1.32,0.48 3.24,0.48 3.48,0 7.2,-1.68 0.72,-0.36 1.08,-0.36 0.6,0 -0.6,3.12 -1.8,4.44 -1.8,8.04 0,1.56 0.6,3.96 0.48,1.92 0.24,1.92 -1.2,0.6 -2.88,-0.96 -1.56,-1.68 -1.56,-3.48 0,-0.84 1.08,-2.64 1.08,-1.92 1.08,-2.88 0,-1.56 -2.04,-2.64 -0.6,-0.24 -1.56,-0.24 -1.32,0 -4.68,0.72 -3.24,0.72 -4.68,0.72 -2.64,0 -2.64,-2.28 0,-1.8 3,-5.04 3,-3.36 3,-4.68 0,-0.48 -0.12,-0.84 -0.96,-1.92 -5.52,-1.92 -4.32,0 -8.76,1.56 -5.64,2.16 -7.68,7.2 -0.96,2.28 -2.04,10.08 0.48,6.24 7.32,7.92 0.96,0.24 0.96,0.96 0,0.96 -1.2,1.44 -6.24,3 -8.4,6.48 -2.76,4.68 -2.76,16.08 0,15.36 0.72,19.8 1.68,7.56 3.96,11.16 3,4.92 8.76,6.36 2.4,0.36 4.44,0.36 9.72,0 17.88,-8.52 3,-4.56 3,-7.32 0,-2.28 -1.92,-3.84 -2.28,-1.56 -2.4,-1.8 -0.12,-0.36 -0.72,-1.08 -0.84,-1.44 -0.84,-3.36 0,-4.8 3.72,-8.88 0.72,-0.96 1.2,0 -0.84,6.12 0,8.64 0.84,2.76 3.24,4.32 2.52,1.56 5.04,3.12 -2.28,7.68 -2.28,11.16 0,4.32 2.28,7.2 z"
           style="font-style:normal;font-variant:normal;font-weight:normal;font-stretch:normal;font-size:120px;font-family:RickGriffin;-inkscape-font-specification:RickGriffin;fill:#c52927;fill-opacity:1;stroke:#a9a9a9;stroke-width:1.27559054;stroke-miterlimit:4;stroke-dasharray:none;stroke-opacity:1"
           id="path4531"
           inkscape:connector-curvature="0" />
        <path
           d="m 135.22193,-454.1626 q -0.24,0.48 -0.84,0.48 -20.76,-2.52 -32.04,-2.52 -12.840001,0 -20.040001,2.52 -4.2,2.04 -11.52,4.56 -1.56,0.24 -1.56,-0.48 0,-0.24 0.48,-0.48 9.36,-4.8 11.64,-21.48 2.64,-20.52 2.52,-32.16 -0.12,-5.16 -1.56,-11.88 -1.08,-4.2 -6.72,-4.92 -2.76,-0.36 -2.76,-2.4 0,-1.08 1.92,-1.56 3.6,-0.84 6.36,-4.44 2.88,-3.72 2.88,-6.96 0,-6.84 -0.12,-7.92 -0.72,-4.8 -4.44,-6.72 -2.64,-1.08 -5.52,1.2 -0.6,0.6 -1.08,-0.6 -0.24,-0.96 1.08,-3.84 0.36,-0.72 1.32,-0.72 1.68,0.36 3.36,0.36 3,0 9,-1.2 6,-1.32 9.24,-1.32 2.52,0 4.800001,0.6 0.72,0.12 1.44,1.56 0.72,1.44 0.72,2.4 0,0.72 -0.84,0.72 -3.960001,0.72 -5.400001,1.2 -3,0.96 -4.2,3.12 -2.76,5.28 -2.76,10.2 0,3.6 1.44,7.44 1.56,3.84 5.16,4.44 2.28,0.48 2.28,2.16 0,1.2 -1.32,1.56 -5.28,1.68 -7.08,5.04 -1.08,2.28 -1.32,8.52 0,10.2 0.6,16.8 1.44,14.16 3.6,19.08 3.84,8.52 14.760001,12.72 1.8,0.84 5.52,0.84 3.72,0 5.04,-0.84 3.36,-2.28 4.32,-5.76 0.6,-2.16 0.6,-7.68 -0.12,-3.12 -3.12,-8.28 -3.12,-5.64 -5.76,-5.64 -4.8,0 -6.12,-1.32 -0.6,-0.36 0,-1.32 3.72,-6.48 9.48,-12.72 3.72,-3.96 9,-7.68 0.6,-0.48 0.96,-0.24 3.36,1.44 6.36,4.56 -0.12,0.48 -0.84,0.6 -1.8,-1.44 -5.52,-1.44 -3.48,0 -6,2.28 -1.44,1.32 -3.36,4.32 -1.92,3.6 -1.92,6 0,1.8 0.96,3.24 1.92,3.24 5.76,3.84 2.4,0.24 4.8,0.48 0.6,0.36 0.36,1.32 -0.24,1.08 -1.2,3.72 -0.84,2.16 -0.84,3.24 0,0.84 0.48,1.56 8.88,11.28 8.88,16.92 0,2.64 -1.32,4.92 z"
           style="font-style:normal;font-variant:normal;font-weight:normal;font-stretch:normal;font-size:120px;font-family:RickGriffin;-inkscape-font-specification:RickGriffin;fill:#c52927;fill-opacity:1;stroke:#a9a9a9;stroke-width:1.27559054;stroke-miterlimit:4;stroke-dasharray:none;stroke-opacity:1"
           id="path4533"
           inkscape:connector-curvature="0" />
        <path
           d="m 199.32255,-557.2426 q -0.84,1.56 -1.08,3.72 -0.24,0.6 -0.84,0.6 -3.84,0 -6,4.92 -1.8,3.96 -1.8,8.76 0,6.84 0.84,9.24 1.32,3.72 6.12,4.92 2.28,0.48 2.28,3.24 0,1.44 -1.32,1.44 -3,0 -3.96,0.6 -3,1.68 -3.72,7.8 v 8.4 q 0,7.92 2.88,14.88 0.12,0.12 3.24,5.88 2.16,4.08 2.16,6.24 0,6.84 -2.64,13.08 -3.48,7.8 -9.36,7.8 -1.2,0 -3.84,-0.6 -2.64,-0.6 -3.84,-0.6 -3.96,0 -12.48,0.84 -8.4,0.84 -12.24,0.84 -3.36,0 -7.2,-5.4 -4.2,-6.12 -6.72,-7.08 v -0.48 q 5.28,-3.48 8.52,-19.32 2.52,-12.24 2.52,-22.32 0,-5.28 -1.68,-7.44 -1.68,-2.28 -7.08,-3.72 -0.96,-0.24 -0.96,-1.08 0,-1.8 2.16,-2.4 5.16,-1.44 6.72,-4.08 1.08,-1.68 1.08,-5.4 0,-8.4 -0.36,-9.84 -1.2,-6.12 -6.84,-6.12 -0.6,0 -3.12,0.72 l -0.24,-0.24 q 1.56,-3 2.16,-3.36 0.6,-0.36 1.44,-0.36 5.04,0.24 4.56,0.24 2.28,0 5.76,-0.36 1.32,-0.24 5.4,-1.32 3.12,-0.96 5.4,-0.96 0.48,0 0.48,0.72 0,2.88 -1.2,2.88 -5.28,0 -7.2,4.44 -1.32,3 -1.32,9.72 0,6.24 1.68,8.88 1.2,1.8 3.84,2.76 2.76,0.84 3.48,1.56 0.72,0.72 0.72,1.8 0,1.8 -1.44,1.8 -4.8,0 -6.48,4.2 -0.36,0.84 -0.72,2.64 -1.2,5.88 -1.2,13.08 0,15.24 1.44,22.68 3.12,15.12 12.36,15.12 h 2.4 q 8.88,0 11.64,-14.64 1.2,-6.36 1.2,-19.92 0,-13.56 -2.4,-18.96 -0.72,-1.68 -2.64,-2.28 -1.8,-0.72 -3.12,-0.72 -1.68,-0.24 -1.68,-1.68 0,-1.56 1.68,-3 1.32,-0.48 4.32,-1.68 2.52,-1.08 3.12,-5.76 0.12,-1.68 0.12,-7.8 0,-8.28 -3.6,-10.8 -1.32,-0.96 -5.04,0 -0.36,-0.12 -0.36,-0.48 0.72,-3.6 2.52,-3.6 6.48,0 10.92,-0.96 5.28,-1.08 9.48,-2.76 0.6,-0.24 0.84,0.12 0.36,0.36 0.24,0.96 z"
           style="font-style:normal;font-variant:normal;font-weight:normal;font-stretch:normal;font-size:120px;font-family:RickGriffin;-inkscape-font-specification:RickGriffin;fill:#c52927;fill-opacity:1;stroke:#a9a9a9;stroke-width:1.27559054;stroke-miterlimit:4;stroke-dasharray:none;stroke-opacity:1"
           id="path4535"
           inkscape:connector-curvature="0" />
        <path
           d="m 267.8838,-467.3626 q 0.96,1.8 0.96,3.84 0,5.04 -3.96,6.72 -0.12,0.12 -4.32,2.4 -2.4,1.32 -4.2,1.32 -1.2,0 -2.52,-0.48 -1.92,-0.84 -3.12,-3.84 -0.6,-1.68 -3.24,-1.92 -6.6,-0.6 -12.24,-0.6 -20.64,0 -31.32,9.12 -0.72,0.48 -1.32,0.48 -0.96,0 -0.96,-0.72 0,-0.6 0.72,-1.32 9.96,-9.96 12.24,-29.52 1.08,-17.76 2.04,-35.52 0.24,-2.76 -2.4,-3.72 -1.2,-0.24 -2.4,-0.48 -1.8,-0.48 -1.8,-1.2 0,-0.24 0.24,-1.08 0.24,-0.96 3.96,-2.76 2.76,-1.56 2.76,-6.12 0,-2.52 -0.72,-6.12 -1.32,-4.92 -2.52,-7.2 -2.04,-4.08 -5.28,-5.28 -3.12,-0.84 -4.32,-0.48 0.24,-0.12 -0.24,-0.6 2.28,-3.24 3.84,-3.24 0.48,0 1.08,0.24 4.56,1.8 6,2.16 2.04,0.48 5.88,0.48 3.84,0 12.72,-1.44 8.88,-1.44 13.08,-1.44 5.76,0 9.36,1.92 1.68,1.08 1.2,2.76 -2.52,15.36 -7.68,21.36 -0.72,0.84 -1.92,2.28 -0.72,0.96 -0.72,1.68 0,1.68 2.4,1.68 1.44,0 4.44,-0.6 3.12,-0.72 4.68,-0.72 2.28,0 3.84,1.08 1.56,1.08 1.44,2.04 -1.92,12.96 -1.92,23.76 0,19.32 6.24,31.08 z m -19.44,-66.84 q 0.96,-2.16 0.96,-5.4 0,-5.64 -2.64,-7.8 -3.6,-3 -9.96,-3 -3.48,0 -7.08,0.96 -5.88,2.4 -5.88,12 0,1.2 0.12,3.36 0.12,2.04 0.12,3 0,3 3.36,4.68 2.76,1.44 6.36,1.44 4.08,0 8.28,-2.52 4.32,-2.64 6.36,-6.72 z m 7.08,50.52 q 0.48,-8.52 0.48,-13.44 0,-14.04 -3.6,-19.8 -3.6,-4.44 -12.84,-4.44 -5.88,0 -9.84,2.64 -5.16,3.72 -6.36,12.36 -0.48,2.88 -0.48,16.56 0,9.84 0.96,13.92 1.68,6.84 7.2,11.04 2.76,1.8 7.8,1.8 4.68,0 7.92,-1.2 5.16,-2.4 6.96,-8.4 0.6,-1.8 1.8,-11.04 z"
           style="font-style:normal;font-variant:normal;font-weight:normal;font-stretch:normal;font-size:120px;font-family:RickGriffin;-inkscape-font-specification:RickGriffin;fill:#c52927;fill-opacity:1;stroke:#a9a9a9;stroke-width:1.27559054;stroke-miterlimit:4;stroke-dasharray:none;stroke-opacity:1"
           id="path4537"
           inkscape:connector-curvature="0" />
        <path
           d="m 340.24193,-464.6026 q -0.12,0.24 -0.24,0.48 -2.16,5.28 -3.84,6.84 -2.4,2.16 -7.56,2.16 -2.52,0 -7.44,-0.6 -4.8,-0.48 -7.32,-0.48 -1.92,0 -5.28,0.72 -3.36,0.84 -3.24,0.84 -0.72,0 -0.72,-0.48 0,-0.24 0.24,-0.36 1.68,-1.2 5.04,-4.08 8.64,-9.12 8.64,-31.08 0,-2.76 -0.24,-8.4 -0.12,-5.64 -0.12,-8.4 0,-9 -4.8,-12 -0.36,-0.24 -3.96,-1.2 -3,-0.72 -3,-1.44 0,-1.92 3.6,-2.64 4.32,-0.96 5.28,-1.8 2.64,-2.64 2.64,-8.88 0,-6.96 -0.36,-8.52 -0.96,-4.08 -5.04,-6.48 -0.36,-0.24 -3.48,-1.08 -2.64,-0.6 -2.64,-1.2 0,-1.08 1.2,-1.8 1.32,-0.84 2.52,-0.84 1.68,0 5.04,0.96 3.48,0.84 5.4,0.84 3.24,0 8.4,-1.32 5.28,-1.44 7.08,-1.44 3.84,0 3.84,4.32 0,0.24 -0.24,0.24 -0.48,0 -1.8,-0.36 -1.32,-0.36 -2.04,-0.36 -5.64,0 -9,3.24 -3.24,3.12 -3.24,8.76 0,3.36 0.6,7.2 0.6,3.72 3.72,5.88 1.44,1.08 5.52,2.64 2.88,1.08 2.88,2.16 0,0.72 -4.2,2.16 -4.2,1.44 -5.04,4.56 -2.28,8.52 -2.28,19.92 0,16.68 6.48,25.32 4.08,5.52 8.64,5.52 0.36,0 0.36,0.48 z"
           style="font-style:normal;font-variant:normal;font-weight:normal;font-stretch:normal;font-size:120px;font-family:RickGriffin;-inkscape-font-specification:RickGriffin;fill:#c52927;fill-opacity:1;stroke:#a9a9a9;stroke-width:1.27559054;stroke-miterlimit:4;stroke-dasharray:none;stroke-opacity:1"
           id="path4539"
           inkscape:connector-curvature="0" />
        <path
           d="m 415.16693,-459.8026 q -0.96,1.44 -1.92,2.76 -0.96,1.44 -2.76,1.08 -4.32,-0.84 -8.04,-0.84 -7.92,0 -15.12,4.08 -1.2,0.6 -2.52,0.6 -1.2,0.12 -1.2,-0.36 0,-0.36 0.48,-0.6 5.4,-3 7.56,-9.96 1.56,-6.36 1.56,-12.72 0,-23.28 -18.72,-42.36 -3.24,-3.12 -5.28,-3.12 -0.72,0 -1.44,0.48 -3.12,2.64 -3.84,7.68 -0.36,4.44 -0.72,9 0.36,15.6 1.2,21.24 1.44,11.16 6.12,17.76 3.36,4.68 8.52,5.28 0.36,0 0.48,0.36 0.12,0.48 -0.12,0.72 -0.84,1.2 -1.8,2.52 -0.96,1.32 -2.64,1.32 -2.64,0 -7.08,-1.08 -4.32,-1.08 -6.72,-1.08 -2.4,0 -4.68,0.72 -3.6,1.8 -10.44,4.44 -0.24,-0.24 -0.48,-0.36 0.12,-0.6 0.72,-0.84 7.32,-3.24 9.96,-12.12 1.2,-4.08 1.92,-15 0.84,-13.68 -0.96,-35.88 -0.36,-3.96 -5.64,-5.16 -1.68,-0.36 -1.68,-1.68 0,-1.44 1.68,-2.16 5.28,-2.52 5.28,-11.64 0,-0.6 -0.36,-7.56 -1.56,-5.28 -4.2,-6.6 -0.48,-0.24 -1.2,-0.24 -0.12,0 -3.36,0.96 -0.36,0 -0.48,-0.36 0.36,-0.36 1.32,-2.64 0.72,-1.56 1.32,-1.44 2.28,0.48 5.04,0.48 2.88,0 8.64,-0.96 5.76,-0.96 8.64,-0.96 1.44,0 2.64,0.24 1.68,0.12 2.28,2.52 0.36,1.44 -0.24,1.92 -1.2,-0.36 -2.76,-0.36 -6.36,0 -7.8,5.04 -0.6,2.52 -0.6,4.68 0,9 10.8,19.44 4.92,4.68 9.96,9.48 5.88,5.52 8.88,9.48 0.96,-1.92 0.96,-4.56 0,-1.32 -0.24,-3.48 -0.48,-3 -0.48,-3.72 -0.36,-3.12 -3.24,-4.44 -2.4,-0.72 -4.56,-1.32 -2.16,-0.72 -2.16,-1.8 0,-1.2 1.56,-2.16 2.4,-0.72 4.68,-1.32 3.24,-1.32 4.2,-5.4 0.12,-0.96 0.36,-4.08 0.24,-2.4 0.24,-3.72 0,-5.64 -4.2,-9.24 -1.08,-0.72 -2.64,-0.72 -1.32,0 -3.72,0.72 -0.36,0.24 -0.6,-0.24 -0.12,-0.36 0.12,-0.84 2.16,-4.32 4.32,-4.32 1.08,0 3.48,0.6 2.4,0.6 3.72,0.6 2.52,0 5.88,-0.96 3.48,-1.08 5.04,-1.08 1.2,0 2.28,0.24 2.52,0.84 2.16,3.48 -0.12,0.24 -0.84,0.48 -0.48,-0.12 -1.2,-0.12 -4.32,0 -6.24,2.52 -1.92,2.4 -2.16,5.64 0,0.24 0,6.6 0,5.16 0.84,7.32 1.56,3.6 6.12,3.6 1.08,0 2.04,0.96 0.96,0.96 0.96,1.92 0,1.2 -1.56,1.2 -3.72,0.36 -4.32,0.72 -3.24,1.44 -3.72,6.36 -0.84,7.08 -0.84,19.8 0,20.28 2.16,27 2.4,7.2 11.04,7.2 z"
           style="font-style:normal;font-variant:normal;font-weight:normal;font-stretch:normal;font-size:120px;font-family:RickGriffin;-inkscape-font-specification:RickGriffin;fill:#c52927;fill-opacity:1;stroke:#a9a9a9;stroke-width:1.27559054;stroke-miterlimit:4;stroke-dasharray:none;stroke-opacity:1"
           id="path4541"
           inkscape:connector-curvature="0" />
        <path
           d="m 480.2463,-535.8826 q 0,1.44 -0.84,3.12 -0.84,1.68 -0.84,3.36 0,0.84 0.12,2.04 0.12,0.84 -0.12,1.08 -0.24,0.36 -0.72,0 -1.44,-1.08 -1.44,-2.4 0,-0.36 0.12,-1.2 0.24,-0.84 0.24,-1.2 0,-0.96 -0.6,-1.68 -0.6,-0.84 -3.6,-0.84 -2.04,0 -7.56,1.32 -0.6,0.12 -0.96,-0.24 -0.36,-0.36 -0.36,-0.84 0,-1.68 1.2,-4.68 1.2,-3.12 1.2,-4.68 0,-2.64 -2.4,-5.04 -1.92,-1.92 -5.52,-1.92 -13.92,0 -17.04,6.96 -1.44,3.48 -1.44,7.08 0,4.56 2.28,8.52 2.64,3.24 7.08,3.24 2.16,0 8.04,-1.2 6,-1.2 9.6,-1.2 3.24,0 3.24,3.48 0,4.08 -3,9.12 -2.28,3.48 -4.32,4.44 -4.32,1.92 -4.68,0.96 -0.36,-1.32 1.08,-2.16 1.2,-0.48 2.4,-1.08 1.92,-0.96 2.4,-3.96 0.48,-2.64 0.36,-3.12 -1.08,-3.12 -6.24,-3.12 -4.2,0 -8.04,1.68 -6.36,2.64 -7.32,8.52 -1.44,10.68 -1.44,21.36 0,20.52 5.88,27 1.92,2.04 6.12,3.6 0.6,0.24 0.24,0.72 -1.56,2.4 -5.16,2.4 -1.2,0 -3.24,-0.48 -2.04,-0.48 -3.36,-0.48 -3.36,0 -10.2,2.16 -6.72,2.16 -9.96,2.04 -1.56,0 -0.96,-0.72 2.04,-1.32 5.52,-4.2 6,-6.12 7.32,-16.68 0.48,-3.12 0.48,-19.68 0,-13.68 -1.44,-21 -0.96,-6.84 -7.92,-6.84 -1.2,0 -1.2,-0.6 0,-1.08 1.32,-1.08 3,0 5.64,-2.16 2.64,-2.28 3,-5.4 0.36,-4.8 0.36,-6.36 0,-8.64 -6.12,-11.88 -1.68,-0.84 -3.6,-0.84 -1.92,0 -2.4,-0.12 -0.36,-0.12 -0.48,-0.48 -0.36,-1.08 -0.24,-1.2 0.96,-2.64 6.36,-2.04 8.04,1.68 15.24,1.68 4.56,0 16.56,-1.08 12.12,-1.08 17.4,-1.08 2.04,0 2.04,0.84 0,0.6 -0.84,1.32 -8.52,5.88 -8.52,15.6 0,0.96 0.36,1.08 0.96,0.6 2.4,0.6 1.08,0 3.72,-0.48 2.64,-0.6 3.84,-0.6 0.96,0 0.96,0.72 z"
           style="font-style:normal;font-variant:normal;font-weight:normal;font-stretch:normal;font-size:120px;font-family:RickGriffin;-inkscape-font-specification:RickGriffin;fill:#c52927;fill-opacity:1;stroke:#a9a9a9;stroke-width:1.27559054;stroke-miterlimit:4;stroke-dasharray:none;stroke-opacity:1"
           id="path4543"
           inkscape:connector-curvature="0" />
        <path
           d="m 543.8763,-459.0826 q 0,1.44 -0.48,1.68 -2.28,1.32 -5.52,1.32 -2.16,0 -6.84,-0.72 -4.68,-0.6 -7.44,-0.6 -15.6,0 -27.96,1.32 -0.96,0.12 -5.76,0.96 -4.8,0.96 -5.16,0.96 -0.96,0 -0.96,-0.72 0,-0.36 1.92,-0.96 2.04,-0.48 2.28,-0.72 5.04,-3.24 5.76,-9.12 1.68,-14.88 1.68,-31.32 0,-11.52 -0.84,-18 -0.36,-3.24 -2.64,-5.28 -2.28,-2.04 -5.4,-2.04 -1.2,0 -1.2,-0.6 0,-1.08 1.32,-1.08 3.12,0 5.64,-2.28 2.64,-2.28 3,-5.28 0.72,-6.24 0.72,-8.52 0,-10.68 -10.68,-10.68 -1.44,0 -1.44,-1.32 0,-2.52 5.04,-2.52 2.88,0 8.76,1.08 5.88,1.08 8.88,1.08 5.4,0 16.2,-0.96 10.92,-1.08 16.32,-1.08 0.84,0 0.84,0.84 0,0.36 -0.36,0.84 -5.88,6.48 -7.32,15.6 v 0.6 q -0.12,1.08 3.12,1.08 1.32,0 3.84,-0.36 2.64,-0.48 3.96,-0.48 0.36,0 0.36,0.48 0,1.32 -0.96,4.08 -0.96,2.64 -0.96,5.4 -0.12,0.12 -0.24,0.12 -1.68,0 -1.68,-2.52 0,-0.48 0.12,-1.32 0.24,-0.96 0.24,-1.44 0,-0.72 -0.36,-1.44 -0.72,-0.48 -1.32,-0.36 -10.44,1.2 -10.56,1.2 -0.72,0 -0.72,-0.6 0,-1.68 1.08,-5.16 1.08,-3.6 1.08,-5.4 0,-5.88 -6,-5.88 -10.32,0 -15,3.24 -5.64,3.96 -5.64,13.68 0,8.4 8.64,8.4 3.24,0 9.36,-1.2 6.24,-1.2 9.36,-1.2 3.12,0 3.12,3.48 0,5.16 -3.36,9.12 -0.84,0.96 -2.28,1.68 -1.32,0.6 -2.64,1.32 -1.32,1.44 -3.12,3 -0.48,-0.24 -0.48,-1.2 0,-2.04 3.12,-3.84 3.24,-1.8 3.24,-5.16 0,-3.84 -6.36,-3.84 -15.72,0 -17.28,6.24 -1.92,8.16 -1.92,17.76 0,17.52 7.2,30 2.04,3.48 7.08,5.52 4.32,1.8 9,1.8 3.6,0 6.96,-2.76 3.36,-2.88 3.36,-6.48 0,-4.2 -1.8,-9.12 -2.16,-6.12 -5.52,-7.08 -4.2,-1.08 -4.2,-2.16 0,-0.48 0.84,-1.08 5.64,-3.6 5.88,-3.84 2.04,-1.68 4.08,-6 0.36,-0.84 0.6,-0.84 0.48,0 0.48,1.08 0,1.08 -1.08,4.68 -1.08,3.48 -1.08,5.4 0,4.32 1.56,6.6 0.6,0.96 2.88,2.64 1.44,1.08 1.44,2.52 -0.12,2.64 -0.12,2.64 0,4.44 2.16,8.52 2.16,3.96 2.16,6.6 z"
           style="font-style:normal;font-variant:normal;font-weight:normal;font-stretch:normal;font-size:120px;font-family:RickGriffin;-inkscape-font-specification:RickGriffin;fill:#c52927;fill-opacity:1;stroke:#a9a9a9;stroke-width:1.27559054;stroke-miterlimit:4;stroke-dasharray:none;stroke-opacity:1"
           id="path4545"
           inkscape:connector-curvature="0" />
        <path
           d="m 611.06693,-467.2426 q 0.84,2.04 0.84,4.08 0,2.76 -1.44,4.92 -1.92,3.12 -5.04,3.12 -0.96,0 -2.64,-0.72 -1.68,-0.72 -3,-0.72 -1.8,0 -5.16,0.96 -3.36,0.96 -5.04,0.96 -0.96,0 -1.8,-0.12 -0.36,-0.24 -0.6,-0.6 -0.12,-0.36 0,-0.72 0.12,-0.24 0.6,-0.12 5.04,0.48 8.76,-4.56 1.92,-2.52 1.92,-7.8 0.12,-7.2 -4.44,-15.84 -1.92,-3.6 -8.16,-12.6 -8.52,-12.36 -13.68,-12.36 -0.72,0 -1.2,0.24 -2.16,1.08 -2.64,6.24 -0.84,9 -1.08,18.12 0,15.36 6.36,21.12 3.6,2.76 6.6,3.6 1.08,0 0.24,0.84 -1.56,2.16 -5.52,2.16 -1.2,0 -3.36,-0.36 -2.16,-0.48 -3.48,-0.48 -3.24,0 -9.72,1.92 -6.48,2.04 -9.6,2.04 -1.56,0 -0.12,-0.96 2.28,-1.8 5.88,-4.8 5.28,-6.12 6.72,-16.2 0.6,-4.08 0.84,-17.76 0.12,-7.8 0.12,-10.08 0,-7.92 -0.96,-11.4 -1.2,-4.2 -4.44,-5.16 -1.44,-0.24 -3.96,-0.84 -1.2,-0.36 -1.2,-1.32 0,-1.92 2.28,-2.64 6.48,-2.76 7.32,-10.8 0.24,-4.92 -0.72,-7.56 -0.96,-2.64 -3.84,-4.44 -3.24,-1.92 -7.44,-0.48 -1.08,0 -0.72,-1.56 0.84,-2.28 2.76,-3.6 0.84,-0.6 2.28,-0.48 3.72,0.6 8.04,0.6 4.8,0 14.28,-1.08 9.6,-1.08 14.28,-1.08 4.56,0 8.4,0.72 0.84,0.12 1.68,1.2 0.96,0.96 0.96,1.68 0.36,5.28 -2.52,12.6 -2.88,7.8 -2.88,11.76 0,1.44 0.24,2.88 0,0.48 -0.72,1.08 -1.56,1.2 -7.44,1.32 -5.4,0.24 -7.2,2.04 -1.68,1.8 -1.68,4.44 0,3.96 4.32,9.6 1.44,2.04 14.52,18.96 9.24,11.64 13.2,20.04 z m -22.08,-79.8 q -2.88,-3.48 -8.28,-3.48 -3.36,0 -5.64,1.32 -7.08,3.84 -6.72,14.16 0.24,7.08 5.88,9.48 1.92,0.84 4.56,0.84 6,0 9.24,-3 3.96,-4.2 3.96,-10.56 0,-5.28 -3,-8.76 z"
           style="font-style:normal;font-variant:normal;font-weight:normal;font-stretch:normal;font-size:120px;font-family:RickGriffin;-inkscape-font-specification:RickGriffin;fill:#c52927;fill-opacity:1;stroke:#a9a9a9;stroke-width:1.27559054;stroke-miterlimit:4;stroke-dasharray:none;stroke-opacity:1"
           id="path4547"
           inkscape:connector-curvature="0" />
        <path
           d="m 684.69818,-459.8026 q -0.96,1.44 -1.92,2.76 -0.96,1.44 -2.76,1.08 -4.32,-0.84 -8.04,-0.84 -7.92,0 -15.12,4.08 -1.2,0.6 -2.52,0.6 -1.2,0.12 -1.2,-0.36 0,-0.36 0.48,-0.6 5.4,-3 7.56,-9.96 1.56,-6.36 1.56,-12.72 0,-23.28 -18.72,-42.36 -3.24,-3.12 -5.28,-3.12 -0.72,0 -1.44,0.48 -3.12,2.64 -3.84,7.68 -0.36,4.44 -0.72,9 0.36,15.6 1.2,21.24 1.44,11.16 6.12,17.76 3.36,4.68 8.52,5.28 0.36,0 0.48,0.36 0.12,0.48 -0.12,0.72 -0.84,1.2 -1.8,2.52 -0.96,1.32 -2.64,1.32 -2.64,0 -7.08,-1.08 -4.32,-1.08 -6.72,-1.08 -2.4,0 -4.68,0.72 -3.6,1.8 -10.44,4.44 -0.24,-0.24 -0.48,-0.36 0.12,-0.6 0.72,-0.84 7.32,-3.24 9.96,-12.12 1.2,-4.08 1.92,-15 0.84,-13.68 -0.96,-35.88 -0.36,-3.96 -5.64,-5.16 -1.68,-0.36 -1.68,-1.68 0,-1.44 1.68,-2.16 5.28,-2.52 5.28,-11.64 0,-0.6 -0.36,-7.56 -1.56,-5.28 -4.2,-6.6 -0.48,-0.24 -1.2,-0.24 -0.12,0 -3.36,0.96 -0.36,0 -0.48,-0.36 0.36,-0.36 1.32,-2.64 0.72,-1.56 1.32,-1.44 2.28,0.48 5.04,0.48 2.88,0 8.64,-0.96 5.76,-0.96 8.64,-0.96 1.44,0 2.64,0.24 1.68,0.12 2.28,2.52 0.36,1.44 -0.24,1.92 -1.2,-0.36 -2.76,-0.36 -6.36,0 -7.8,5.04 -0.6,2.52 -0.6,4.68 0,9 10.8,19.44 4.92,4.68 9.96,9.48 5.88,5.52 8.88,9.48 0.96,-1.92 0.96,-4.56 0,-1.32 -0.24,-3.48 -0.48,-3 -0.48,-3.72 -0.36,-3.12 -3.24,-4.44 -2.4,-0.72 -4.56,-1.32 -2.16,-0.72 -2.16,-1.8 0,-1.2 1.56,-2.16 2.4,-0.72 4.68,-1.32 3.24,-1.32 4.2,-5.4 0.12,-0.96 0.36,-4.08 0.24,-2.4 0.24,-3.72 0,-5.64 -4.2,-9.24 -1.08,-0.72 -2.64,-0.72 -1.32,0 -3.72,0.72 -0.36,0.24 -0.6,-0.24 -0.12,-0.36 0.12,-0.84 2.16,-4.32 4.32,-4.32 1.08,0 3.48,0.6 2.4,0.6 3.72,0.6 2.52,0 5.88,-0.96 3.48,-1.08 5.04,-1.08 1.2,0 2.28,0.24 2.52,0.84 2.16,3.48 -0.12,0.24 -0.84,0.48 -0.48,-0.12 -1.2,-0.12 -4.32,0 -6.24,2.52 -1.92,2.4 -2.16,5.64 0,0.24 0,6.6 0,5.16 0.84,7.32 1.56,3.6 6.12,3.6 1.08,0 2.04,0.96 0.96,0.96 0.96,1.92 0,1.2 -1.56,1.2 -3.72,0.36 -4.32,0.72 -3.24,1.44 -3.72,6.36 -0.84,7.08 -0.84,19.8 0,20.28 2.16,27 2.4,7.2 11.04,7.2 z"
           style="font-style:normal;font-variant:normal;font-weight:normal;font-stretch:normal;font-size:120px;font-family:RickGriffin;-inkscape-font-specification:RickGriffin;fill:#c52927;fill-opacity:1;stroke:#a9a9a9;stroke-width:1.27559054;stroke-miterlimit:4;stroke-dasharray:none;stroke-opacity:1"
           id="path4549"
           inkscape:connector-curvature="0" />
        <path
           d="m 751.21755,-473.2426 q -1.08,4.2 -2.16,8.4 -1.68,5.76 -6,8.04 -0.6,0.48 -2.88,0.48 -22.44,-0.96 -32.28,0.96 -1.44,0.24 -2.52,0 -3.96,-0.96 -7.8,-6.48 -3.84,-5.52 -6.72,-6.72 -1.08,-0.36 -0.24,-1.08 5.64,-4.92 8.64,-18.24 2.88,-11.76 2.88,-21.36 0,-4.8 -0.72,-9 -0.96,-2.88 -5.64,-2.88 -0.6,0 -0.6,-1.08 0,-1.68 2.64,-2.64 3.24,-1.08 4.08,-2.4 2.04,-3.48 2.64,-10.68 0.72,-8.64 1.92,-12.48 0.6,-1.8 1.8,-2.4 2.16,-0.84 12.36,-1.08 9.84,-0.24 12.72,-1.8 0.6,-0.36 1.32,-0.36 2.64,0 3.12,3.24 0.84,5.88 1.68,11.88 0.96,6.48 2.52,11.4 0.84,2.28 2.64,4.08 1.92,1.68 3.96,1.68 1.44,0 1.44,1.32 0,1.92 -1.8,2.04 -1.2,0 -2.64,1.2 -1.32,1.2 -1.8,2.88 -1.2,5.52 -1.2,10.8 0,8.76 4.2,20.28 0.6,1.8 3.12,4.8 1.92,2.52 1.92,4.44 0,1.2 -0.6,2.76 z m -14.52,-23.28 q 0,-0.96 0,-3.36 0.12,-2.88 0.12,-4.32 0,-13.56 -6.96,-16.08 -1.68,-0.24 -1.68,-2.52 0,-1.56 2.52,-3 4.08,-2.64 4.08,-9.36 0,-6.24 -3.12,-11.76 -2.28,-4.08 -9.24,-4.08 -4.2,0 -6.84,1.44 -6.24,4.2 -6.24,13.68 0,4.44 1.56,7.92 1.56,3.48 4.08,3.48 0.84,0 0.96,0.6 0.48,2.76 -2.88,4.2 -3.96,1.56 -4.56,4.08 -1.44,6 -1.44,14.04 0,9.24 1.8,18.36 3.12,15.24 8.76,19.08 1.92,1.08 4.92,1.08 3.24,0 5.16,-1.08 4.8,-3.12 6.96,-10.2 1.68,-5.16 1.92,-12.6 0,-4.8 0.12,-9.6 z"
           style="font-style:normal;font-variant:normal;font-weight:normal;font-stretch:normal;font-size:120px;font-family:RickGriffin;-inkscape-font-specification:RickGriffin;fill:#c52927;fill-opacity:1;stroke:#a9a9a9;stroke-width:1.27559054;stroke-miterlimit:4;stroke-dasharray:none;stroke-opacity:1"
           id="path4551"
           inkscape:connector-curvature="0" />
      </g>
    </g>
  </g>
</svg>
